…
# group by scene
lines8 <- group_by(lines7, scene, line = cumsum(!is.na(speaker))) 

lines9 <- summarize(lines8, speaker = speaker[1], dialogue = str_c(dialogue, collapse = " "))

# Count the lines-per-scene-per-character
# Turn the result into a binary speaker-by-scene matrix
by_speaker_scene <- count(lines9, scene, speaker)
by_speaker_scene
```

```
## # A tibble: 447 x 3
## # Groups:   scene [321]
##    scene    speaker     n
##    <int>      <chr> <int>
##  1    26      PADME     1
##  2    27      PADME     1
##  3    29      PADME     1
##  4    48      PADME     1
##  5    50      PADME     2
##  6    66 MACE WINDU     1
##  7    67 MACE WINDU     1
##  8    69       YODA     1
##  9    70 MACE WINDU     1
## 10    74       YODA     1
## # ... with 437 more rows
```
…
