…
Collect metrics.

    xg_tune %>%
      collect_metrics() %>%
      arrange(desc(mean))

    ## # A tibble: 162 × 12
    ##     mtry trees min_n tree_depth learn_rate loss_reduction .metric  .estimator  mean     n
    ##    <dbl> <dbl> <dbl>      <dbl>      <dbl>          <dbl> <chr>    <chr>      <dbl> <int>
    ##  1     3  1000     2          5       0.01           0.01 accuracy binary     0.849     5
    ##  2     8  1000     2          5       0.01           0.01 accuracy binary     0.847     5
    ##  3     8  1000     2          5       0.01           0.1  accuracy binary     0.846     5
    ##  4     3  1000     2         15       0.01           0.1  accuracy binary     0.844     5
    ##  5     5  1000     2         10       0.01           1    accuracy binary     0.844     5
    ##  6     3  1000     2          5       0.01           0.1  accuracy binary     0.844     5
    ##  7     5  1000     2         10       0.01           0.1  accuracy binary     0.843     5
    ##  8     3  1000     2         10       0.01           0.1  accuracy binary     0.843     5
    ##  9     5  1000     2          5       0.01           0.01 accuracy binary     0.843     5
    ## 10     5  1000     2          5       0.01           0.1  accuracy binary     0.843     5
    ## # … with 152 more rows, and 2 more variables: std_err <dbl>, .config <chr>
…
Collect metrics.

    xg_tune %>%
      collect_metrics() %>%
      arrange(desc(mean))

    ## # A tibble: 50 × 12
    ##     mtry trees min_n tree_depth learn_rate loss_reduction .metric  .estimator  mean     n
    ##    <int> <int> <int>      <int>      <dbl>          <dbl> <chr>    <chr>      <dbl> <int>
    ##  1     6   856     4         13   1.12e- 2       2.49e- 8 accuracy binary     0.837     5
    ##  2    10  1952     6          7   3.36e- 2       2.07e+ 0 accuracy binary     0.829     5
    ##  3     3   896     2          5   1.73e- 5       6.97e- 8 accuracy binary     0.826     5
    ##  4    14  1122     4          6   1.16e- 6       3.44e+ 0 accuracy binary     0.815     4
    ##  5     7   939     8          4   2.88e- 5       1.50e- 4 accuracy binary     0.813     4
    ##  6     7    17    10          7   4.54e- 6       6.38e- 3 accuracy binary     0.813     4
    ##  7     8    92     9         11   3.60e- 3       3.01e-10 accuracy binary     0.811     4
    ##  8    13  1407    15          4   1.48e- 2       9.68e- 4 accuracy binary     0.807     3
    ##  9     4   658    11          9   9.97e-10       1.27e- 5 accuracy binary     0.805     3
    ## 10     2   628    14          9   1.84e- 6       9.44e- 5 accuracy binary     0.798     3
    ## # … with 40 more rows, and 2 more variables: std_err <dbl>, .config <chr>
…
Collect metrics.

    rf_tune %>%
      collect_metrics() %>%
      arrange(desc(mean))

    ## # A tibble: 50 × 9
    ##     mtry trees min_n .metric  .estimator  mean     n std_err .config              
    ##    <int> <int> <int> <chr>    <chr>      <dbl> <int>   <dbl> <chr>                
    ##  1    14  1554     5 accuracy binary     0.837     5 0.00656 Preprocessor1_Model49
    ##  2     4   774    18 accuracy binary     0.837     5 0.0133  Preprocessor1_Model50
    ##  3     5  1736     8 accuracy binary     0.834     5 0.0111  Preprocessor1_Model46
    ##  4     8  1322     5 accuracy binary     0.832     5 0.00713 Preprocessor1_Model41
    ##  5     2  1078    30 accuracy binary     0.831     5 0.00727 Preprocessor1_Model12
    ##  6     4  1892    14 accuracy binary     0.831     5 0.00886 Preprocessor1_Model39
    ##  7     8   962     7 accuracy binary     0.829     5 0.00742 Preprocessor1_Model43
    ##  8     7   946     4 accuracy binary     0.826     5 0.00452 Preprocessor1_Model23
    ##  9     7  1262     3 accuracy binary     0.826     5 0.00710 Preprocessor1_Model47
    ## 10     9   544     9 accuracy binary     0.825     5 0.00673 Preprocessor1_Model11
    ## # … with 40 more rows
…
Collect metrics.

    cb_tune %>%
      collect_metrics() %>%
      arrange(desc(mean))

    ## # A tibble: 30 × 11
    ##     mtry trees min_n tree_depth learn_rate .metric  .estimator  mean     n std_err .config 
    ##    <int> <int> <int>      <int>      <dbl> <chr>    <chr>      <dbl> <int>   <dbl> <chr>   
    ##  1     1  1787    25          7   6.84e- 3 accuracy binary     0.835     5 0.0125  Preproc…
    ##  2    12  1885    18         15   2.06e- 3 accuracy binary     0.831     5 0.00602 Preproc…
    ##  3    13  1278     5          6   2.10e- 2 accuracy binary     0.826     5 0.00431 Preproc…
    ##  4     3  1681    22          5   5.42e- 3 accuracy binary     0.825     5 0.00507 Preproc…
    ##  5     9   303     2          8   9.94e- 2 accuracy binary     0.820     4 0.0120  Preproc…
    ##  6    11  1201    24         12   3.77e- 2 accuracy binary     0.812     3 0.00868 Preproc…
    ##  7    11   634    35         11   1.30e- 3 accuracy binary     0.805     3 0.0242  Preproc…
    ##  8     7  1648     4          7   2.38e- 4 accuracy binary     0.737     3 0.0115  Preproc…
    ##  9     1  1427    27         10   1.74e- 6 accuracy binary     0.378     3 0.0152  Preproc…
    ## 10     2   940    19          3   3.20e-10 accuracy binary     0.378     3 0.0152  Preproc…
    ## # … with 20 more rows
…
Collect metrics.

    en_tune %>%
      collect_metrics() %>%
      arrange(desc(mean))

    ## # A tibble: 160 × 8
    ##         penalty mixture .metric  .estimator  mean     n std_err .config               
    ##           <dbl>   <dbl> <chr>    <chr>      <dbl> <int>   <dbl> <chr>                 
    ##  1 0.00000001     0.111 accuracy binary     0.831     5  0.0112 Preprocessor1_Model017
    ##  2 0.0000000316   0.111 accuracy binary     0.831     5  0.0112 Preprocessor1_Model018
    ##  3 0.0000001      0.111 accuracy binary     0.831     5  0.0112 Preprocessor1_Model019
    ##  4 0.000000316    0.111 accuracy binary     0.831     5  0.0112 Preprocessor1_Model020
    ##  5 0.000001       0.111 accuracy binary     0.831     5  0.0112 Preprocessor1_Model021
    ##  6 0.00000316     0.111 accuracy binary     0.831     5  0.0112 Preprocessor1_Model022
    ##  7 0.00001        0.111 accuracy binary     0.831     5  0.0112 Preprocessor1_Model023
    ##  8 0.0000316      0.111 accuracy binary     0.831     5  0.0112 Preprocessor1_Model024
    ##  9 0.0001         0.111 accuracy binary     0.831     5  0.0112 Preprocessor1_Model025
    ## 10 0.000316       0.111 accuracy binary     0.831     5  0.0112 Preprocessor1_Model026
    ## # … with 150 more rows
…
Collect metrics.

    nn_tune %>%
      collect_metrics() %>%
      arrange(desc(mean))

    ## # A tibble: 30 × 9
    ##    hidden_units dropout epochs .metric  .estimator  mean     n std_err .config             
    ##           <int>   <dbl>  <int> <chr>    <chr>      <dbl> <int>   <dbl> <chr>               
    ##  1           10 0.484      405 accuracy binary     0.838     5 0.0150  Preprocessor1_Model…
    ##  2            7 0.0597     220 accuracy binary     0.834     5 0.00881 Preprocessor1_Model…
    ##  3            4 0.536      629 accuracy binary     0.834     5 0.0154  Preprocessor1_Model…
    ##  4            9 0.198      768 accuracy binary     0.832     5 0.0146  Preprocessor1_Model…
    ##  5            6 0.752      822 accuracy binary     0.832     5 0.0112  Preprocessor1_Model…
    ##  6            9 0.406      293 accuracy binary     0.831     5 0.0145  Preprocessor1_Model…
    ##  7            4 0.00445    871 accuracy binary     0.831     5 0.0150  Preprocessor1_Model…
    ##  8            4 0.293      353 accuracy binary     0.831     5 0.0117  Preprocessor1_Model…
    ##  9           10 0.675      935 accuracy binary     0.831     5 0.0141  Preprocessor1_Model…
    ## 10            7 0.128      580 accuracy binary     0.831     5 0.0151  Preprocessor1_Model…
    ## # … with 20 more rows
…
Collect metrics.

    svm_tune %>%
      collect_metrics() %>%
      arrange(desc(mean))

    ## # A tibble: 30 × 8
    ##        cost    rbf_sigma .metric  .estimator  mean     n std_err .config              
    ##       <dbl>        <dbl> <chr>    <chr>      <dbl> <int>   <dbl> <chr>                
    ##  1 17.7     0.00183      accuracy binary     0.829     5 0.0101  Preprocessor1_Model05
    ##  2  0.741   0.0506       accuracy binary     0.823     5 0.0129  Preprocessor1_Model14
    ##  3  1.77    0.0429       accuracy binary     0.820     5 0.0143  Preprocessor1_Model08
    ##  4  0.229   0.0197       accuracy binary     0.808     3 0.00626 Preprocessor1_Model23
    ##  5  1.15    0.00285      accuracy binary     0.795     3 0.00867 Preprocessor1_Model28
    ##  6  0.00182 0.00000203   accuracy binary     0.613     3 0.0171  Preprocessor1_Model01
    ##  7  0.0477  0.714        accuracy binary     0.613     3 0.0171  Preprocessor1_Model02
    ##  8  6.60    0.0000294    accuracy binary     0.613     3 0.0171  Preprocessor1_Model03
    ##  9  0.00254 0.000636     accuracy binary     0.613     3 0.0171  Preprocessor1_Model04
    ## 10  0.00544 0.0000000647 accuracy binary     0.613     3 0.0171  Preprocessor1_Model06
    ## # … with 20 more rows
…
Collect metrics.

    dt_tune %>%
      collect_metrics() %>%
      arrange(desc(mean))

    ## # A tibble: 30 × 9
    ##    cost_complexity tree_depth min_n .metric  .estimator  mean     n std_err .config        
    ##              <dbl>      <int> <int> <chr>    <chr>      <dbl> <int>   <dbl> <chr>          
    ##  1        3.02e- 7         13     7 accuracy binary     0.832     5 0.0130  Preprocessor1_…
    ##  2        3.43e- 3         14     4 accuracy binary     0.829     5 0.0145  Preprocessor1_…
    ##  3        5.75e- 5          5     7 accuracy binary     0.828     5 0.0126  Preprocessor1_…
    ##  4        2.13e- 6         14     5 accuracy binary     0.828     5 0.0108  Preprocessor1_…
    ##  5        1.34e- 5          5    35 accuracy binary     0.823     5 0.00654 Preprocessor1_…
    ##  6        4.47e- 5         13    10 accuracy binary     0.823     5 0.0120  Preprocessor1_…
    ##  7        1.42e- 2          4    25 accuracy binary     0.822     5 0.0121  Preprocessor1_…
    ##  8        4.54e-10         10    36 accuracy binary     0.822     5 0.0147  Preprocessor1_…
    ##  9        8.10e- 8         11    32 accuracy binary     0.822     5 0.0143  Preprocessor1_…
    ## 10        3.43e- 4         11    21 accuracy binary     0.820     5 0.0207  Preprocessor1_…
    ## # … with 20 more rows
…
